[
  {
    "id": 1,
    "schema": "first_node",
    "ports": [6081,6092,6093]
  },
  {
    "id": 2,
    "schema": "second_node",
    "ports": [7081,7092,7093]
  },
  {
    "id": 3,
    "schema": "third_node",
    "ports": [8081,8092,8093]
  }
]